EUChr01 1 10 0
EUChr01 5000000 5000010 5
EUChr01 10000000 10000010 10
EUChr01 15000000 15000010 15
EUChr01 20000000 20000010 20
EUChr01 25000000 25000010 25
EUChr01 30000000 30000010 30
EUChr01 35000000 35000010 35
EUChr01 40000000 40000010 40
EUChr01 44965187 44965197 45
EUChr02 1 10 0
EUChr02 5000000 5000010 5
EUChr02 10000000 10000010 10
EUChr02 15000000 15000010 15
EUChr02 20000000 20000010 20
EUChr02 25000000 25000010 25
EUChr02 30000000 30000010 30
EUChr02 35000000 35000010 35
EUChr02 40000000 40000010 40
EUChr02 45000000 45000010 45
EUChr02 50000000 50000010 50
EUChr02 55000000 55000010 55
EUChr02 59529160 59529170 60
EUChr03 1 10 0
EUChr03 5000000 5000010 5
EUChr03 10000000 10000010 10
EUChr03 15000000 15000010 15
EUChr03 20000000 20000010 20
EUChr03 25000000 25000010 25
EUChr03 30000000 30000010 30
EUChr03 35000000 35000010 35
EUChr03 40000000 40000010 40
EUChr03 45000000 45000010 45
EUChr03 50000000 50000010 50
EUChr03 55000000 55000010 55
EUChr03 60000000 60000010 60
EUChr03 65000000 65000010 65
EUChr03 70000000 70000010 70
EUChr03 75000000 75000010 75
EUChr03 80000000 80000010 80
EUChr03 83952234 83952244 84
EUChr04 1 10 0
EUChr04 5000000 5000010 5
EUChr04 10000000 10000010 10
EUChr04 15000000 15000010 15
EUChr04 20000000 20000010 20
EUChr04 25000000 25000010 25
EUChr04 30000000 30000010 30
EUChr04 35000000 35000010 35
EUChr04 40000000 40000010 40
EUChr05 1 10 0
EUChr05 5000000 5000010 5
EUChr05 10000000 10000010 10
EUChr05 15000000 15000010 15
EUChr05 20000000 20000010 20
EUChr05 25000000 25000010 25
EUChr05 30000000 30000010 30
EUChr05 35000000 35000010 35
EUChr05 40000000 40000010 40
EUChr05 45000000 45000010 45
EUChr05 50000000 50000010 50
EUChr05 55000000 55000010 55
EUChr05 60000000 60000010 60
EUChr05 65000000 65000010 65
EUChr05 70000000 70000010 70
EUChr05 75000000 75000010 75
EUChr06 1 10 0
EUChr06 5000000 5000010 5
EUChr06 10000000 10000010 10
EUChr06 15000000 15000010 15
EUChr06 20000000 20000010 20
EUChr06 25000000 25000010 25
EUChr06 30000000 30000010 30
EUChr06 35000000 35000010 35
EUChr06 40000000 40000010 40
EUChr06 45000000 45000010 45
EUChr06 50000000 50000010 50
EUChr06 55000000 55000010 55
EUChr07 1 10 0
EUChr07 5000000 5000010 5
EUChr07 10000000 10000010 10
EUChr07 15000000 15000010 15
EUChr07 20000000 20000010 20
EUChr07 25000000 25000010 25
EUChr07 30000000 30000010 30
EUChr07 35000000 35000010 35
EUChr07 40000000 40000010 40
EUChr07 45000000 45000010 45
EUChr07 50000000 50000010 50
EUChr07 54830010 54830020 55
EUChr08 1 10 0
EUChr08 5000000 5000010 5
EUChr08 10000000 10000010 10
EUChr08 15000000 15000010 15
EUChr08 20000000 20000010 20
EUChr08 25000000 25000010 25
EUChr08 30000000 30000010 30
EUChr08 35000000 35000010 35
EUChr08 40000000 40000010 40
EUChr08 45000000 45000010 45
EUChr08 50000000 50000010 50
EUChr08 55000000 55000010 55
EUChr08 60000000 60000010 60
EUChr08 65000000 65000010 65
EUChr08 70000000 70000010 70
EUChr09 1 10 0
EUChr09 5000000 5000010 5
EUChr09 10000000 10000010 10
EUChr09 15000000 15000010 15
EUChr09 20000000 20000010 20
EUChr09 25000000 25000010 25
EUChr09 30000000 30000010 30
EUChr09 35000000 35000010 35
EUChr09 39307825 39307835 40
EUChr10 1 10 0
EUChr10 5000000 5000010 5
EUChr10 10000000 10000010 10
EUChr10 15000000 15000010 15
EUChr10 20000000 20000010 20
EUChr10 25000000 25000010 25
EUChr10 30000000 30000010 30
EUChr10 35000000 35000010 35
EUChr11 1 10 0
EUChr11 5000000 5000010 5
EUChr11 10000000 10000010 10
EUChr11 15000000 15000010 15
EUChr11 20000000 20000010 20
EUChr11 25000000 25000010 25
EUChr11 30000000 30000010 30
EUChr11 35000000 35000010 35
EUChr11 40000000 40000010 40
EUChr11 44836781 44836791 45
