EUChr01	1	3000000	0.3335
EUChr01	300001	3300000	0.3168
EUChr01	600001	3600000	0.2711
EUChr01	900001	3900000	0.2722
EUChr01	1200001	4200000	0.2445
EUChr01	1500001	4500000	0.2260
EUChr01	1800001	4800000	0.2316
EUChr01	2100001	5100000	0.2470
EUChr01	2400001	5400000	0.2368
EUChr01	2700001	5700000	0.2454
EUChr01	3000001	6000000	0.2598
EUChr01	3300001	6300000	0.2880
EUChr01	3600001	6600000	0.2950
EUChr01	3900001	6900000	0.3005
EUChr01	4200001	7200000	0.3191
EUChr01	4500001	7500000	0.3461
EUChr01	4800001	7800000	0.3528
EUChr01	5100001	8100000	0.3688
EUChr01	5400001	8400000	0.3615
EUChr01	5700001	8700000	0.3565
EUChr01	6000001	9000000	0.3558
EUChr01	6300001	9300000	0.3379
EUChr01	6600001	9600000	0.3403
EUChr01	6900001	9900000	0.3723
EUChr01	7200001	10200000	0.3720
EUChr01	7500001	10500000	0.3434
EUChr01	7800001	10800000	0.3270
EUChr01	8100001	11100000	0.3226
EUChr01	8400001	11400000	0.3350
EUChr01	8700001	11700000	0.3381
EUChr01	9000001	12000000	0.3514
EUChr01	9300001	12300000	0.3636
EUChr01	9600001	12600000	0.3814
EUChr01	9900001	12900000	0.3435
EUChr01	10200001	13200000	0.3299
EUChr01	10500001	13500000	0.3353
EUChr01	10800001	13800000	0.3333
EUChr01	11100001	14100000	0.3381
EUChr01	11400001	14400000	0.3549
EUChr01	11700001	14700000	0.3562
EUChr01	12000001	15000000	0.3380
EUChr01	12300001	15300000	0.3476
EUChr01	12600001	15600000	0.3168
EUChr01	12900001	15900000	0.3422
EUChr01	13200001	16200000	0.3766
EUChr01	13500001	16500000	0.3877
EUChr01	13800001	16800000	0.4012
EUChr01	14100001	17100000	0.3878
EUChr01	14400001	17400000	0.3945
EUChr01	14700001	17700000	0.4173
EUChr01	15000001	18000000	0.4087
EUChr01	15300001	18300000	0.3866
EUChr01	15600001	18600000	0.3975
EUChr01	15900001	18900000	0.3903
EUChr01	16200001	19200000	0.3536
EUChr01	16500001	19500000	0.3287
EUChr01	16800001	19800000	0.3431
EUChr01	17100001	20100000	0.3554
EUChr01	17400001	20400000	0.3289
EUChr01	17700001	20700000	0.3142
EUChr01	18000001	21000000	0.3388
EUChr01	18300001	21300000	0.3408
EUChr01	18600001	21600000	0.3440
EUChr01	18900001	21900000	0.3395
EUChr01	19200001	22200000	0.3519
EUChr01	19500001	22500000	0.3723
EUChr01	19800001	22800000	0.3630
EUChr01	20100001	23100000	0.3582
EUChr01	20400001	23400000	0.3625
EUChr01	20700001	23700000	0.3663
EUChr01	21000001	24000000	0.3581
EUChr01	21300001	24300000	0.3578
EUChr01	21600001	24600000	0.3388
EUChr01	21900001	24900000	0.3443
EUChr01	22200001	25200000	0.3343
EUChr01	22500001	25500000	0.3346
EUChr01	22800001	25800000	0.3307
EUChr01	23100001	26100000	0.3453
EUChr01	23400001	26400000	0.3627
EUChr01	23700001	26700000	0.3720
EUChr01	24000001	27000000	0.3561
EUChr01	24300001	27300000	0.3540
EUChr01	24600001	27600000	0.3652
EUChr01	24900001	27900000	0.3513
EUChr01	25200001	28200000	0.3580
EUChr01	25500001	28500000	0.3447
EUChr01	25800001	28800000	0.3480
EUChr01	26100001	29100000	0.3153
EUChr01	26400001	29400000	0.2839
EUChr01	26700001	29700000	0.2561
EUChr01	27000001	30000000	0.2876
EUChr01	27300001	30300000	0.2798
EUChr01	27600001	30600000	0.2727
EUChr01	27900001	30900000	0.2654
EUChr01	28200001	31200000	0.2593
EUChr01	28500001	31500000	0.2551
EUChr01	28800001	31800000	0.2680
EUChr01	29100001	32100000	0.3054
EUChr01	29400001	32400000	0.3219
EUChr01	29700001	32700000	0.3337
EUChr01	30000001	33000000	0.3143
EUChr01	30300001	33300000	0.3210
EUChr01	30600001	33600000	0.3179
EUChr01	30900001	33900000	0.3226
EUChr01	31200001	34200000	0.3339
EUChr01	31500001	34500000	0.3440
EUChr01	31800001	34800000	0.3242
EUChr01	32100001	35100000	0.2914
EUChr01	32400001	35400000	0.2992
EUChr01	32700001	35700000	0.2804
EUChr01	33000001	36000000	0.2659
EUChr01	33300001	36300000	0.2825
EUChr01	33600001	36600000	0.2789
EUChr01	33900001	36900000	0.2699
EUChr01	34200001	37200000	0.2535
EUChr01	34500001	37500000	0.2284
EUChr01	34800001	37800000	0.2236
EUChr01	35100001	38100000	0.2334
EUChr01	35400001	38400000	0.2355
EUChr01	35700001	38700000	0.2402
EUChr01	36000001	39000000	0.2379
EUChr01	36300001	39300000	0.2163
EUChr01	36600001	39600000	0.2210
EUChr01	36900001	39900000	0.2130
EUChr01	37200001	40200000	0.1971
EUChr01	37500001	40500000	0.2040
EUChr01	37800001	40800000	0.2022
EUChr01	38100001	41100000	0.2062
EUChr01	38400001	41400000	0.1830
EUChr01	38700001	41700000	0.1805
EUChr01	39000001	42000000	0.1865
EUChr01	39300001	42300000	0.1967
EUChr01	39600001	42600000	0.1922
EUChr01	39900001	42900000	0.2144
EUChr01	40200001	43200000	0.2310
EUChr01	40500001	43500000	0.2464
EUChr01	40800001	43800000	0.2518
EUChr01	41100001	44100000	0.2376
EUChr01	41400001	44400000	0.2372
EUChr01	41700001	44700000	0.2377
EUChr01	42000001	45000000	0.2499
EUChr01	42300001	45300000	0.2299
EUChr01	42600001	45562418	0.2371
EUChr02	1	3000000	0.2754
EUChr02	300001	3300000	0.2580
EUChr02	600001	3600000	0.2440
EUChr02	900001	3900000	0.2470
EUChr02	1200001	4200000	0.2525
EUChr02	1500001	4500000	0.2344
EUChr02	1800001	4800000	0.2422
EUChr02	2100001	5100000	0.2420
EUChr02	2400001	5400000	0.2133
EUChr02	2700001	5700000	0.2107
EUChr02	3000001	6000000	0.2413
EUChr02	3300001	6300000	0.2986
EUChr02	3600001	6600000	0.3010
EUChr02	3900001	6900000	0.2921
EUChr02	4200001	7200000	0.2820
EUChr02	4500001	7500000	0.2830
EUChr02	4800001	7800000	0.2715
EUChr02	5100001	8100000	0.2791
EUChr02	5400001	8400000	0.3059
EUChr02	5700001	8700000	0.3222
EUChr02	6000001	9000000	0.3184
EUChr02	6300001	9300000	0.2835
EUChr02	6600001	9600000	0.2834
EUChr02	6900001	9900000	0.2944
EUChr02	7200001	10200000	0.3040
EUChr02	7500001	10500000	0.3042
EUChr02	7800001	10800000	0.3028
EUChr02	8100001	11100000	0.2835
EUChr02	8400001	11400000	0.2713
EUChr02	8700001	11700000	0.2628
EUChr02	9000001	12000000	0.2609
EUChr02	9300001	12300000	0.2510
EUChr02	9600001	12600000	0.2489
EUChr02	9900001	12900000	0.2536
EUChr02	10200001	13200000	0.2594
EUChr02	10500001	13500000	0.2740
EUChr02	10800001	13800000	0.3075
EUChr02	11100001	14100000	0.3172
EUChr02	11400001	14400000	0.3056
EUChr02	11700001	14700000	0.3156
EUChr02	12000001	15000000	0.3153
EUChr02	12300001	15300000	0.3241
EUChr02	12600001	15600000	0.3172
EUChr02	12900001	15900000	0.3127
EUChr02	13200001	16200000	0.3088
EUChr02	13500001	16500000	0.2860
EUChr02	13800001	16800000	0.2764
EUChr02	14100001	17100000	0.2972
EUChr02	14400001	17400000	0.3276
EUChr02	14700001	17700000	0.3256
EUChr02	15000001	18000000	0.3188
EUChr02	15300001	18300000	0.3267
EUChr02	15600001	18600000	0.3413
EUChr02	15900001	18900000	0.3378
EUChr02	16200001	19200000	0.3318
EUChr02	16500001	19500000	0.3654
EUChr02	16800001	19800000	0.3516
EUChr02	17100001	20100000	0.3258
EUChr02	17400001	20400000	0.3211
EUChr02	17700001	20700000	0.3079
EUChr02	18000001	21000000	0.3060
EUChr02	18300001	21300000	0.2855
EUChr02	18600001	21600000	0.2777
EUChr02	18900001	21900000	0.2857
EUChr02	19200001	22200000	0.2767
EUChr02	19500001	22500000	0.2489
EUChr02	19800001	22800000	0.2515
EUChr02	20100001	23100000	0.2450
EUChr02	20400001	23400000	0.2355
EUChr02	20700001	23700000	0.2349
EUChr02	21000001	24000000	0.2275
EUChr02	21300001	24300000	0.2369
EUChr02	21600001	24600000	0.2361
EUChr02	21900001	24900000	0.2246
EUChr02	22200001	25200000	0.2327
EUChr02	22500001	25500000	0.2222
EUChr02	22800001	25800000	0.2081
EUChr02	23100001	26100000	0.2085
EUChr02	23400001	26400000	0.1904
EUChr02	23700001	26700000	0.1787
EUChr02	24000001	27000000	0.1811
EUChr02	24300001	27300000	0.1656
EUChr02	24600001	27600000	0.1581
EUChr02	24900001	27900000	0.1821
EUChr02	25200001	28200000	0.1688
EUChr02	25500001	28500000	0.1765
EUChr02	25800001	28800000	0.2022
EUChr02	26100001	29100000	0.2150
EUChr02	26400001	29400000	0.2194
EUChr02	26700001	29700000	0.2288
EUChr02	27000001	30000000	0.2167
EUChr02	27300001	30300000	0.2171
EUChr02	27600001	30600000	0.2191
EUChr02	27900001	30900000	0.1993
EUChr02	28200001	31200000	0.2045
EUChr02	28500001	31500000	0.2088
EUChr02	28800001	31800000	0.2105
EUChr02	29100001	32100000	0.1964
EUChr02	29400001	32400000	0.2213
EUChr02	29700001	32700000	0.2243
EUChr02	30000001	33000000	0.2368
EUChr02	30300001	33300000	0.2583
EUChr02	30600001	33600000	0.2638
EUChr02	30900001	33900000	0.2605
EUChr02	31200001	34200000	0.2580
EUChr02	31500001	34500000	0.2500
EUChr02	31800001	34800000	0.2425
EUChr02	32100001	35100000	0.2833
EUChr02	32400001	35400000	0.2707
EUChr02	32700001	35700000	0.2594
EUChr02	33000001	36000000	0.2575
EUChr02	33300001	36300000	0.2363
EUChr02	33600001	36600000	0.2253
EUChr02	33900001	36900000	0.2286
EUChr02	34200001	37200000	0.2338
EUChr02	34500001	37500000	0.2549
EUChr02	34800001	37800000	0.2592
EUChr02	35100001	38100000	0.2369
EUChr02	35400001	38400000	0.2428
EUChr02	35700001	38700000	0.2644
EUChr02	36000001	39000000	0.2765
EUChr02	36300001	39300000	0.2848
EUChr02	36600001	39600000	0.3100
EUChr02	36900001	39900000	0.3447
EUChr02	37200001	40200000	0.3722
EUChr02	37500001	40500000	0.3610
EUChr02	37800001	40800000	0.3628
EUChr02	38100001	41100000	0.3476
EUChr02	38400001	41400000	0.3243
EUChr02	38700001	41700000	0.3019
EUChr02	39000001	42000000	0.2792
EUChr02	39300001	42300000	0.2687
EUChr02	39600001	42600000	0.2498
EUChr02	39900001	42900000	0.2173
EUChr02	40200001	43200000	0.1864
EUChr02	40500001	43500000	0.1713
EUChr02	40800001	43800000	0.1374
EUChr02	41100001	44100000	0.1329
EUChr02	41400001	44400000	0.1325
EUChr02	41700001	44700000	0.1407
EUChr02	42000001	45000000	0.1371
EUChr02	42300001	45300000	0.1520
EUChr02	42600001	45600000	0.1772
EUChr02	42900001	45900000	0.1812
EUChr02	43200001	46200000	0.1930
EUChr02	43500001	46294847	0.2109
EUChr03	1	3000000	0.1971
EUChr03	300001	3300000	0.1947
EUChr03	600001	3600000	0.1998
EUChr03	900001	3900000	0.2059
EUChr03	1200001	4200000	0.1972
EUChr03	1500001	4500000	0.1981
EUChr03	1800001	4800000	0.1914
EUChr03	2100001	5100000	0.2058
EUChr03	2400001	5400000	0.1952
EUChr03	2700001	5700000	0.1960
EUChr03	3000001	6000000	0.2233
EUChr03	3300001	6300000	0.2324
EUChr03	3600001	6600000	0.2236
EUChr03	3900001	6900000	0.2180
EUChr03	4200001	7200000	0.2258
EUChr03	4500001	7500000	0.2244
EUChr03	4800001	7800000	0.2380
EUChr03	5100001	8100000	0.2385
EUChr03	5400001	8400000	0.2690
EUChr03	5700001	8700000	0.2867
EUChr03	6000001	9000000	0.2618
EUChr03	6300001	9300000	0.2507
EUChr03	6600001	9600000	0.2890
EUChr03	6900001	9900000	0.2896
EUChr03	7200001	10200000	0.3065
EUChr03	7500001	10500000	0.3119
EUChr03	7800001	10800000	0.3191
EUChr03	8100001	11100000	0.3071
EUChr03	8400001	11400000	0.3031
EUChr03	8700001	11700000	0.2926
EUChr03	9000001	12000000	0.3072
EUChr03	9300001	12300000	0.3160
EUChr03	9600001	12600000	0.3271
EUChr03	9900001	12900000	0.3407
EUChr03	10200001	13200000	0.3849
EUChr03	10500001	13500000	0.4098
EUChr03	10800001	13800000	0.3933
EUChr03	11100001	14100000	0.3988
EUChr03	11400001	14400000	0.3850
EUChr03	11700001	14700000	0.3892
EUChr03	12000001	15000000	0.3938
EUChr03	12300001	15300000	0.4065
EUChr03	12600001	15600000	0.3732
EUChr03	12900001	15900000	0.3592
EUChr03	13200001	16200000	0.2997
EUChr03	13500001	16500000	0.2909
EUChr03	13800001	16800000	0.3171
EUChr03	14100001	17100000	0.3350
EUChr03	14400001	17400000	0.3402
EUChr03	14700001	17700000	0.3620
EUChr03	15000001	18000000	0.3633
EUChr03	15300001	18300000	0.3659
EUChr03	15600001	18600000	0.3761
EUChr03	15900001	18900000	0.3967
EUChr03	16200001	19200000	0.4127
EUChr03	16500001	19500000	0.3994
EUChr03	16800001	19800000	0.3705
EUChr03	17100001	20100000	0.3710
EUChr03	17400001	20400000	0.3843
EUChr03	17700001	20700000	0.3615
EUChr03	18000001	21000000	0.3509
EUChr03	18300001	21300000	0.3383
EUChr03	18600001	21600000	0.3309
EUChr03	18900001	21900000	0.3344
EUChr03	19200001	22200000	0.3372
EUChr03	19500001	22500000	0.3540
EUChr03	19800001	22800000	0.3723
EUChr03	20100001	23100000	0.3738
EUChr03	20400001	23400000	0.3938
EUChr03	20700001	23700000	0.4134
EUChr03	21000001	24000000	0.4253
EUChr03	21300001	24300000	0.4571
EUChr03	21600001	24600000	0.4613
EUChr03	21900001	24900000	0.4455
EUChr03	22200001	25200000	0.4286
EUChr03	22500001	25500000	0.4049
EUChr03	22800001	25800000	0.3997
EUChr03	23100001	26100000	0.4016
EUChr03	23400001	26400000	0.3933
EUChr03	23700001	26700000	0.3780
EUChr03	24000001	27000000	0.3701
EUChr03	24300001	27300000	0.3502
EUChr03	24600001	27600000	0.3505
EUChr03	24900001	27900000	0.3782
EUChr03	25200001	28200000	0.4051
EUChr03	25500001	28500000	0.4225
EUChr03	25800001	28800000	0.4549
EUChr03	26100001	29100000	0.4431
EUChr03	26400001	29400000	0.4172
EUChr03	26700001	29700000	0.4308
EUChr03	27000001	30000000	0.4350
EUChr03	27300001	30300000	0.4196
EUChr03	27600001	30600000	0.4190
EUChr03	27900001	30900000	0.3959
EUChr03	28200001	31200000	0.3610
EUChr03	28500001	31500000	0.3502
EUChr03	28800001	31800000	0.3385
EUChr03	29100001	32100000	0.3485
EUChr03	29400001	32400000	0.3470
EUChr03	29700001	32700000	0.3287
EUChr03	30000001	33000000	0.3160
EUChr03	30300001	33300000	0.3280
EUChr03	30600001	33600000	0.3247
EUChr03	30900001	33900000	0.3174
EUChr03	31200001	34200000	0.3289
EUChr03	31500001	34500000	0.3288
EUChr03	31800001	34800000	0.2981
EUChr03	32100001	35100000	0.2827
EUChr03	32400001	35400000	0.2714
EUChr03	32700001	35700000	0.2698
EUChr03	33000001	36000000	0.2815
EUChr03	33300001	36300000	0.2649
EUChr03	33600001	36600000	0.2649
EUChr03	33900001	36900000	0.2587
EUChr03	34200001	37200000	0.2492
EUChr03	34500001	37500000	0.2395
EUChr03	34800001	37800000	0.2329
EUChr03	35100001	38100000	0.2167
EUChr03	35400001	38400000	0.2108
EUChr03	35700001	38700000	0.2128
EUChr03	36000001	39000000	0.1945
EUChr03	36300001	39300000	0.2025
EUChr03	36600001	39600000	0.2020
EUChr03	36900001	39900000	0.2203
EUChr03	37200001	40200000	0.2599
EUChr03	37500001	40500000	0.2865
EUChr03	37800001	40800000	0.2954
EUChr03	38100001	41100000	0.3050
EUChr03	38400001	41400000	0.3143
EUChr03	38700001	41700000	0.3411
EUChr03	39000001	42000000	0.3647
EUChr03	39300001	42300000	0.3586
EUChr03	39600001	42600000	0.3528
EUChr03	39900001	42900000	0.3340
EUChr03	40200001	43200000	0.2956
EUChr03	40500001	43500000	0.2786
EUChr03	40800001	43800000	0.2741
EUChr03	41100001	44100000	0.2824
EUChr03	41400001	44400000	0.2774
EUChr03	41700001	44700000	0.2501
EUChr03	42000001	45000000	0.2344
EUChr03	42300001	45300000	0.2354
EUChr03	42600001	45600000	0.2267
EUChr03	42900001	45900000	0.2557
EUChr03	43200001	46200000	0.2812
EUChr03	43500001	46500000	0.2765
EUChr03	43800001	46800000	0.2756
EUChr03	44100001	47100000	0.2681
EUChr03	44400001	47400000	0.2783
EUChr03	44700001	47700000	0.2934
EUChr03	45000001	48000000	0.3111
EUChr03	45300001	48300000	0.3081
EUChr03	45600001	48600000	0.3066
EUChr03	45900001	48900000	0.2803
EUChr03	46200001	49200000	0.2565
EUChr03	46500001	49500000	0.2567
EUChr03	46800001	49800000	0.2769
EUChr03	47100001	49881599	0.2959
EUChr04	1	3000000	0.3333
EUChr04	300001	3300000	0.3424
EUChr04	600001	3600000	0.3332
EUChr04	900001	3900000	0.3442
EUChr04	1200001	4200000	0.3264
EUChr04	1500001	4500000	0.2970
EUChr04	1800001	4800000	0.3061
EUChr04	2100001	5100000	0.2915
EUChr04	2400001	5400000	0.2980
EUChr04	2700001	5700000	0.3196
EUChr04	3000001	6000000	0.3210
EUChr04	3300001	6300000	0.3394
EUChr04	3600001	6600000	0.3447
EUChr04	3900001	6900000	0.3269
EUChr04	4200001	7200000	0.3396
EUChr04	4500001	7500000	0.3476
EUChr04	4800001	7800000	0.3396
EUChr04	5100001	8100000	0.3468
EUChr04	5400001	8400000	0.3475
EUChr04	5700001	8700000	0.3565
EUChr04	6000001	9000000	0.3459
EUChr04	6300001	9300000	0.3112
EUChr04	6600001	9600000	0.3073
EUChr04	6900001	9900000	0.2929
EUChr04	7200001	10200000	0.2809
EUChr04	7500001	10500000	0.2750
EUChr04	7800001	10800000	0.2832
EUChr04	8100001	11100000	0.2744
EUChr04	8400001	11400000	0.2793
EUChr04	8700001	11700000	0.2812
EUChr04	9000001	12000000	0.2909
EUChr04	9300001	12300000	0.3019
EUChr04	9600001	12600000	0.3158
EUChr04	9900001	12900000	0.3435
EUChr04	10200001	13200000	0.3766
EUChr04	10500001	13500000	0.3810
EUChr04	10800001	13800000	0.3715
EUChr04	11100001	14100000	0.3707
EUChr04	11400001	14400000	0.3426
EUChr04	11700001	14700000	0.3182
EUChr04	12000001	15000000	0.3101
EUChr04	12300001	15300000	0.3230
EUChr04	12600001	15600000	0.3123
EUChr04	12900001	15900000	0.3065
EUChr04	13200001	16200000	0.2753
EUChr04	13500001	16500000	0.2871
EUChr04	13800001	16800000	0.2779
EUChr04	14100001	17100000	0.2979
EUChr04	14400001	17400000	0.3183
EUChr04	14700001	17700000	0.3319
EUChr04	15000001	18000000	0.3393
EUChr04	15300001	18300000	0.3230
EUChr04	15600001	18600000	0.3209
EUChr04	15900001	18900000	0.3268
EUChr04	16200001	19200000	0.3359
EUChr04	16500001	19500000	0.3394
EUChr04	16800001	19800000	0.3539
EUChr04	17100001	20100000	0.3343
EUChr04	17400001	20400000	0.3323
EUChr04	17700001	20700000	0.3282
EUChr04	18000001	21000000	0.3432
EUChr04	18300001	21300000	0.3651
EUChr04	18600001	21600000	0.3643
EUChr04	18900001	21900000	0.3568
EUChr04	19200001	22200000	0.3638
EUChr04	19500001	22500000	0.3587
EUChr04	19800001	22800000	0.3614
EUChr04	20100001	23100000	0.3700
EUChr04	20400001	23400000	0.3849
EUChr04	20700001	23700000	0.3996
EUChr04	21000001	24000000	0.3974
EUChr04	21300001	24300000	0.3841
EUChr04	21600001	24600000	0.4177
EUChr04	21900001	24900000	0.4378
EUChr04	22200001	25200000	0.4293
EUChr04	22500001	25500000	0.4358
EUChr04	22800001	25800000	0.4218
EUChr04	23100001	26100000	0.4262
EUChr04	23400001	26400000	0.4065
EUChr04	23700001	26700000	0.3817
EUChr04	24000001	27000000	0.3616
EUChr04	24300001	27300000	0.3540
EUChr04	24600001	27600000	0.2931
EUChr04	24900001	27900000	0.2510
EUChr04	25200001	28200000	0.2455
EUChr04	25500001	28500000	0.2228
EUChr04	25800001	28800000	0.2279
EUChr04	26100001	29100000	0.2233
EUChr04	26400001	29400000	0.2215
EUChr04	26700001	29700000	0.2366
EUChr04	27000001	30000000	0.2433
EUChr04	27300001	30300000	0.2334
EUChr04	27600001	30600000	0.2342
EUChr04	27900001	30900000	0.2542
EUChr04	28200001	31200000	0.2367
EUChr04	28500001	31500000	0.2375
EUChr04	28800001	31800000	0.2291
EUChr04	29100001	32100000	0.2114
EUChr04	29400001	32400000	0.2010
EUChr04	29700001	32700000	0.1836
EUChr04	30000001	33000000	0.1691
EUChr04	30300001	33300000	0.1796
EUChr04	30600001	33600000	0.2060
EUChr04	30900001	33900000	0.2063
EUChr04	31200001	34200000	0.2091
EUChr04	31500001	34500000	0.2103
EUChr04	31800001	34800000	0.2206
EUChr04	32100001	35100000	0.2210
EUChr04	32400001	35400000	0.2218
EUChr04	32700001	35561653	0.2270
EUChr05	1	3000000	0.2149
EUChr05	300001	3300000	0.2229
EUChr05	600001	3600000	0.2405
EUChr05	900001	3900000	0.2481
EUChr05	1200001	4200000	0.2327
EUChr05	1500001	4500000	0.2068
EUChr05	1800001	4800000	0.2058
EUChr05	2100001	5100000	0.2015
EUChr05	2400001	5400000	0.1985
EUChr05	2700001	5700000	0.2078
EUChr05	3000001	6000000	0.2117
EUChr05	3300001	6300000	0.2110
EUChr05	3600001	6600000	0.2053
EUChr05	3900001	6900000	0.2110
EUChr05	4200001	7200000	0.2073
EUChr05	4500001	7500000	0.2105
EUChr05	4800001	7800000	0.2187
EUChr05	5100001	8100000	0.2122
EUChr05	5400001	8400000	0.2311
EUChr05	5700001	8700000	0.2585
EUChr05	6000001	9000000	0.2741
EUChr05	6300001	9300000	0.2800
EUChr05	6600001	9600000	0.2918
EUChr05	6900001	9900000	0.2865
EUChr05	7200001	10200000	0.2883
EUChr05	7500001	10500000	0.2948
EUChr05	7800001	10800000	0.2965
EUChr05	8100001	11100000	0.3071
EUChr05	8400001	11400000	0.3078
EUChr05	8700001	11700000	0.2835
EUChr05	9000001	12000000	0.2796
EUChr05	9300001	12300000	0.2656
EUChr05	9600001	12600000	0.2555
EUChr05	9900001	12900000	0.2587
EUChr05	10200001	13200000	0.2719
EUChr05	10500001	13500000	0.2849
EUChr05	10800001	13800000	0.2878
EUChr05	11100001	14100000	0.2994
EUChr05	11400001	14400000	0.3190
EUChr05	11700001	14700000	0.3051
EUChr05	12000001	15000000	0.2926
EUChr05	12300001	15300000	0.3016
EUChr05	12600001	15600000	0.3129
EUChr05	12900001	15900000	0.3196
EUChr05	13200001	16200000	0.3338
EUChr05	13500001	16500000	0.3402
EUChr05	13800001	16800000	0.3455
EUChr05	14100001	17100000	0.3303
EUChr05	14400001	17400000	0.3157
EUChr05	14700001	17700000	0.3299
EUChr05	15000001	18000000	0.3652
EUChr05	15300001	18300000	0.3719
EUChr05	15600001	18600000	0.3597
EUChr05	15900001	18900000	0.3635
EUChr05	16200001	19200000	0.3352
EUChr05	16500001	19500000	0.3060
EUChr05	16800001	19800000	0.2988
EUChr05	17100001	20100000	0.3070
EUChr05	17400001	20400000	0.2981
EUChr05	17700001	20700000	0.3304
EUChr05	18000001	21000000	0.3142
EUChr05	18300001	21300000	0.3054
EUChr05	18600001	21600000	0.3074
EUChr05	18900001	21900000	0.3113
EUChr05	19200001	22200000	0.3145
EUChr05	19500001	22500000	0.3382
EUChr05	19800001	22800000	0.3409
EUChr05	20100001	23100000	0.3311
EUChr05	20400001	23400000	0.3450
EUChr05	20700001	23700000	0.3116
EUChr05	21000001	24000000	0.3071
EUChr05	21300001	24300000	0.3086
EUChr05	21600001	24600000	0.3306
EUChr05	21900001	24900000	0.3628
EUChr05	22200001	25200000	0.3796
EUChr05	22500001	25500000	0.3712
EUChr05	22800001	25800000	0.3858
EUChr05	23100001	26100000	0.3887
EUChr05	23400001	26400000	0.3780
EUChr05	23700001	26700000	0.3944
EUChr05	24000001	27000000	0.4050
EUChr05	24300001	27300000	0.4129
EUChr05	24600001	27600000	0.3978
EUChr05	24900001	27900000	0.3526
EUChr05	25200001	28200000	0.3379
EUChr05	25500001	28500000	0.3355
EUChr05	25800001	28800000	0.3077
EUChr05	26100001	29100000	0.3148
EUChr05	26400001	29400000	0.3061
EUChr05	26700001	29700000	0.2961
EUChr05	27000001	30000000	0.2921
EUChr05	27300001	30300000	0.2696
EUChr05	27600001	30600000	0.2690
EUChr05	27900001	30900000	0.2739
EUChr05	28200001	31200000	0.2841
EUChr05	28500001	31500000	0.2813
EUChr05	28800001	31800000	0.2950
EUChr05	29100001	32100000	0.2860
EUChr05	29400001	32400000	0.2736
EUChr05	29700001	32700000	0.2875
EUChr05	30000001	33000000	0.2995
EUChr05	30300001	33300000	0.3426
EUChr05	30600001	33600000	0.3505
EUChr05	30900001	33900000	0.3621
EUChr05	31200001	34200000	0.3705
EUChr05	31500001	34500000	0.3816
EUChr05	31800001	34800000	0.3859
EUChr05	32100001	35100000	0.4147
EUChr05	32400001	35400000	0.4482
EUChr05	32700001	35700000	0.4342
EUChr05	33000001	36000000	0.4207
EUChr05	33300001	36300000	0.4030
EUChr05	33600001	36600000	0.3831
EUChr05	33900001	36900000	0.3787
EUChr05	34200001	37200000	0.3533
EUChr05	34500001	37500000	0.3431
EUChr05	34800001	37800000	0.3271
EUChr05	35100001	38100000	0.2964
EUChr05	35400001	38400000	0.3011
EUChr05	35700001	38700000	0.2976
EUChr05	36000001	39000000	0.3015
EUChr05	36300001	39300000	0.3036
EUChr05	36600001	39600000	0.3051
EUChr05	36900001	39900000	0.2799
EUChr05	37200001	40200000	0.2687
EUChr05	37500001	40242915	0.2732
EUChr06	1	3000000	0.3365
EUChr06	300001	3300000	0.3300
EUChr06	600001	3600000	0.3082
EUChr06	900001	3900000	0.2509
EUChr06	1200001	4200000	0.2261
EUChr06	1500001	4500000	0.2251
EUChr06	1800001	4800000	0.2211
EUChr06	2100001	5100000	0.2058
EUChr06	2400001	5400000	0.2105
EUChr06	2700001	5700000	0.2161
EUChr06	3000001	6000000	0.2417
EUChr06	3300001	6300000	0.2381
EUChr06	3600001	6600000	0.2351
EUChr06	3900001	6900000	0.2427
EUChr06	4200001	7200000	0.2527
EUChr06	4500001	7500000	0.2530
EUChr06	4800001	7800000	0.2641
EUChr06	5100001	8100000	0.2690
EUChr06	5400001	8400000	0.2568
EUChr06	5700001	8700000	0.2291
EUChr06	6000001	9000000	0.2214
EUChr06	6300001	9300000	0.2375
EUChr06	6600001	9600000	0.2427
EUChr06	6900001	9900000	0.2326
EUChr06	7200001	10200000	0.2289
EUChr06	7500001	10500000	0.2221
EUChr06	7800001	10800000	0.2045
EUChr06	8100001	11100000	0.1933
EUChr06	8400001	11400000	0.1959
EUChr06	8700001	11700000	0.2181
EUChr06	9000001	12000000	0.2188
EUChr06	9300001	12300000	0.2069
EUChr06	9600001	12600000	0.2188
EUChr06	9900001	12900000	0.2270
EUChr06	10200001	13200000	0.2354
EUChr06	10500001	13500000	0.2255
EUChr06	10800001	13800000	0.2276
EUChr06	11100001	14100000	0.2240
EUChr06	11400001	14400000	0.2278
EUChr06	11700001	14700000	0.2136
EUChr06	12000001	15000000	0.2118
EUChr06	12300001	15300000	0.2317
EUChr06	12600001	15600000	0.2286
EUChr06	12900001	15900000	0.2534
EUChr06	13200001	16200000	0.2691
EUChr06	13500001	16500000	0.2839
EUChr06	13800001	16800000	0.2773
EUChr06	14100001	17100000	0.3019
EUChr06	14400001	17400000	0.2936
EUChr06	14700001	17700000	0.3018
EUChr06	15000001	18000000	0.3104
EUChr06	15300001	18300000	0.2870
EUChr06	15600001	18600000	0.2883
EUChr06	15900001	18900000	0.2792
EUChr06	16200001	19200000	0.2804
EUChr06	16500001	19500000	0.2839
EUChr06	16800001	19800000	0.3018
EUChr06	17100001	20100000	0.3540
EUChr06	17400001	20400000	0.4138
EUChr06	17700001	20700000	0.4173
EUChr06	18000001	21000000	0.4139
EUChr06	18300001	21300000	0.4439
EUChr06	18600001	21600000	0.4380
EUChr06	18900001	21900000	0.4350
EUChr06	19200001	22200000	0.4340
EUChr06	19500001	22500000	0.4316
EUChr06	19800001	22800000	0.4418
EUChr06	20100001	23100000	0.3900
EUChr06	20400001	23400000	0.3686
EUChr06	20700001	23700000	0.3858
EUChr06	21000001	24000000	0.4063
EUChr06	21300001	24300000	0.3756
EUChr06	21600001	24600000	0.3785
EUChr06	21900001	24900000	0.3775
EUChr06	22200001	25200000	0.3535
EUChr06	22500001	25500000	0.3438
EUChr06	22800001	25800000	0.3339
EUChr06	23100001	26100000	0.3158
EUChr06	23400001	26400000	0.2844
EUChr06	23700001	26700000	0.2596
EUChr06	24000001	27000000	0.2634
EUChr06	24300001	27300000	0.2692
EUChr06	24600001	27600000	0.2511
EUChr06	24900001	27900000	0.2445
EUChr06	25200001	28200000	0.2550
EUChr06	25500001	28500000	0.2503
EUChr06	25800001	28800000	0.2526
EUChr06	26100001	29100000	0.2449
EUChr06	26400001	29400000	0.2464
EUChr06	26700001	29700000	0.2524
EUChr06	27000001	30000000	0.2245
EUChr06	27300001	30300000	0.2106
EUChr06	27600001	30600000	0.2063
EUChr06	27900001	30900000	0.2004
EUChr06	28200001	31200000	0.1881
EUChr06	28500001	31500000	0.1956
EUChr06	28800001	31800000	0.1877
EUChr06	29100001	32100000	0.2025
EUChr06	29400001	32400000	0.1888
EUChr06	29700001	32700000	0.2031
EUChr06	30000001	33000000	0.1911
EUChr06	30300001	33300000	0.1912
EUChr06	30600001	33600000	0.1885
EUChr06	30900001	33900000	0.1813
EUChr06	31200001	34200000	0.1678
EUChr06	31500001	34500000	0.1586
EUChr06	31800001	34800000	0.1431
EUChr06	32100001	35100000	0.1351
EUChr06	32400001	35400000	0.1403
EUChr06	32700001	35700000	0.1094
EUChr06	33000001	36000000	0.1194
EUChr06	33300001	36300000	0.1402
EUChr06	33600001	36600000	0.1768
EUChr06	33900001	36900000	0.1821
EUChr06	34200001	37200000	0.1874
EUChr06	34500001	37500000	0.1843
EUChr06	34800001	37800000	0.1948
EUChr06	35100001	38100000	0.1958
EUChr06	35400001	38400000	0.1991
EUChr06	35700001	38700000	0.2021
EUChr06	36000001	39000000	0.1925
EUChr06	36300001	39300000	0.1683
EUChr06	36600001	39600000	0.1358
EUChr06	36900001	39900000	0.1484
EUChr06	37200001	40200000	0.1659
EUChr06	37500001	40500000	0.1667
EUChr06	37800001	40800000	0.1750
EUChr06	38100001	41100000	0.1663
EUChr06	38400001	41400000	0.1648
EUChr06	38700001	41700000	0.1659
EUChr06	39000001	42000000	0.1678
EUChr06	39300001	42300000	0.1777
EUChr06	39600001	42600000	0.1786
EUChr06	39900001	42900000	0.1685
EUChr06	40200001	43200000	0.1642
EUChr06	40500001	43500000	0.1675
EUChr06	40800001	43800000	0.1597
EUChr06	41100001	44100000	0.1768
EUChr06	41400001	44400000	0.2077
EUChr06	41700001	44700000	0.2284
EUChr06	42000001	45000000	0.2449
EUChr06	42300001	45300000	0.2786
EUChr06	42600001	45600000	0.3042
EUChr06	42900001	45900000	0.3033
EUChr06	43200001	46200000	0.2868
EUChr06	43500001	46500000	0.2870
EUChr06	43800001	46800000	0.2901
EUChr06	44100001	47100000	0.2800
EUChr06	44400001	47400000	0.2559
EUChr06	44700001	47639447	0.2505
EUChr07	1	3000000	0.2672
EUChr07	300001	3300000	0.2773
EUChr07	600001	3600000	0.2853
EUChr07	900001	3900000	0.2808
EUChr07	1200001	4200000	0.2550
EUChr07	1500001	4500000	0.2740
EUChr07	1800001	4800000	0.2786
EUChr07	2100001	5100000	0.2865
EUChr07	2400001	5400000	0.3066
EUChr07	2700001	5700000	0.3176
EUChr07	3000001	6000000	0.3010
EUChr07	3300001	6300000	0.2833
EUChr07	3600001	6600000	0.2754
EUChr07	3900001	6900000	0.2609
EUChr07	4200001	7200000	0.2630
EUChr07	4500001	7500000	0.2321
EUChr07	4800001	7800000	0.2248
EUChr07	5100001	8100000	0.2077
EUChr07	5400001	8400000	0.2013
EUChr07	5700001	8700000	0.2051
EUChr07	6000001	9000000	0.2165
EUChr07	6300001	9300000	0.2231
EUChr07	6600001	9600000	0.2703
EUChr07	6900001	9900000	0.2924
EUChr07	7200001	10200000	0.2900
EUChr07	7500001	10500000	0.3093
EUChr07	7800001	10800000	0.3173
EUChr07	8100001	11100000	0.3168
EUChr07	8400001	11400000	0.3137
EUChr07	8700001	11700000	0.3200
EUChr07	9000001	12000000	0.3235
EUChr07	9300001	12300000	0.3296
EUChr07	9600001	12600000	0.3151
EUChr07	9900001	12900000	0.3250
EUChr07	10200001	13200000	0.3642
EUChr07	10500001	13500000	0.3646
EUChr07	10800001	13800000	0.3634
EUChr07	11100001	14100000	0.3599
EUChr07	11400001	14400000	0.3571
EUChr07	11700001	14700000	0.3549
EUChr07	12000001	15000000	0.3427
EUChr07	12300001	15300000	0.3247
EUChr07	12600001	15600000	0.3079
EUChr07	12900001	15900000	0.3009
EUChr07	13200001	16200000	0.2776
EUChr07	13500001	16500000	0.2706
EUChr07	13800001	16800000	0.2834
EUChr07	14100001	17100000	0.3090
EUChr07	14400001	17400000	0.3225
EUChr07	14700001	17700000	0.3164
EUChr07	15000001	18000000	0.3155
EUChr07	15300001	18300000	0.3291
EUChr07	15600001	18600000	0.3323
EUChr07	15900001	18900000	0.3296
EUChr07	16200001	19200000	0.3305
EUChr07	16500001	19500000	0.3388
EUChr07	16800001	19800000	0.3423
EUChr07	17100001	20100000	0.3323
EUChr07	17400001	20400000	0.3310
EUChr07	17700001	20700000	0.3185
EUChr07	18000001	21000000	0.3132
EUChr07	18300001	21300000	0.3224
EUChr07	18600001	21600000	0.3262
EUChr07	18900001	21900000	0.3208
EUChr07	19200001	22200000	0.3250
EUChr07	19500001	22500000	0.3140
EUChr07	19800001	22800000	0.2972
EUChr07	20100001	23100000	0.3090
EUChr07	20400001	23400000	0.3172
EUChr07	20700001	23700000	0.3255
EUChr07	21000001	24000000	0.3447
EUChr07	21300001	24300000	0.3458
EUChr07	21600001	24600000	0.3428
EUChr07	21900001	24900000	0.3644
EUChr07	22200001	25200000	0.3569
EUChr07	22500001	25500000	0.3776
EUChr07	22800001	25800000	0.3985
EUChr07	23100001	26100000	0.3913
EUChr07	23400001	26400000	0.3711
EUChr07	23700001	26700000	0.3583
EUChr07	24000001	27000000	0.3469
EUChr07	24300001	27300000	0.3284
EUChr07	24600001	27600000	0.3296
EUChr07	24900001	27900000	0.3202
EUChr07	25200001	28200000	0.3218
EUChr07	25500001	28500000	0.3069
EUChr07	25800001	28800000	0.2910
EUChr07	26100001	29100000	0.2858
EUChr07	26400001	29400000	0.2853
EUChr07	26700001	29700000	0.2757
EUChr07	27000001	30000000	0.2621
EUChr07	27300001	30300000	0.2682
EUChr07	27600001	30600000	0.2696
EUChr07	27900001	30900000	0.2429
EUChr07	28200001	31200000	0.2361
EUChr07	28500001	31500000	0.2267
EUChr07	28800001	31800000	0.2252
EUChr07	29100001	32100000	0.2181
EUChr07	29400001	32400000	0.2196
EUChr07	29700001	32700000	0.2520
EUChr07	30000001	33000000	0.2684
EUChr07	30300001	33300000	0.2540
EUChr07	30600001	33600000	0.2395
EUChr07	30900001	33900000	0.2488
EUChr07	31200001	34200000	0.2393
EUChr07	31500001	34500000	0.2248
EUChr07	31800001	34800000	0.2329
EUChr07	32100001	35100000	0.2451
EUChr07	32400001	35400000	0.2360
EUChr07	32700001	35700000	0.2035
EUChr07	33000001	36000000	0.1924
EUChr07	33300001	36300000	0.1906
EUChr07	33600001	36600000	0.1874
EUChr07	33900001	36900000	0.1856
EUChr07	34200001	37200000	0.1858
EUChr07	34500001	37500000	0.1883
EUChr07	34800001	37800000	0.1685
EUChr07	35100001	38100000	0.1646
EUChr07	35400001	38400000	0.1728
EUChr07	35700001	38700000	0.1701
EUChr07	36000001	39000000	0.1640
EUChr07	36300001	39300000	0.1767
EUChr07	36600001	39600000	0.1768
EUChr07	36900001	39900000	0.2154
EUChr07	37200001	40200000	0.2192
EUChr07	37500001	40500000	0.2405
EUChr07	37800001	40800000	0.2510
EUChr07	38100001	41100000	0.2369
EUChr07	38400001	41400000	0.2294
EUChr07	38700001	41700000	0.2327
EUChr07	39000001	42000000	0.2250
EUChr07	39300001	42300000	0.2093
EUChr07	39600001	42454922	0.2146
EUChr08	1	3000000	0.2454
EUChr08	300001	3300000	0.2574
EUChr08	600001	3600000	0.2642
EUChr08	900001	3900000	0.2840
EUChr08	1200001	4200000	0.2766
EUChr08	1500001	4500000	0.2963
EUChr08	1800001	4800000	0.3015
EUChr08	2100001	5100000	0.2978
EUChr08	2400001	5400000	0.3095
EUChr08	2700001	5700000	0.2988
EUChr08	3000001	6000000	0.2786
EUChr08	3300001	6300000	0.2607
EUChr08	3600001	6600000	0.2465
EUChr08	3900001	6900000	0.2206
EUChr08	4200001	7200000	0.2045
EUChr08	4500001	7500000	0.1894
EUChr08	4800001	7800000	0.1918
EUChr08	5100001	8100000	0.1884
EUChr08	5400001	8400000	0.1818
EUChr08	5700001	8700000	0.1863
EUChr08	6000001	9000000	0.1996
EUChr08	6300001	9300000	0.2003
EUChr08	6600001	9600000	0.2104
EUChr08	6900001	9900000	0.2244
EUChr08	7200001	10200000	0.2413
EUChr08	7500001	10500000	0.2394
EUChr08	7800001	10800000	0.2533
EUChr08	8100001	11100000	0.2742
EUChr08	8400001	11400000	0.3030
EUChr08	8700001	11700000	0.3334
EUChr08	9000001	12000000	0.3287
EUChr08	9300001	12300000	0.3369
EUChr08	9600001	12600000	0.3429
EUChr08	9900001	12900000	0.3225
EUChr08	10200001	13200000	0.3177
EUChr08	10500001	13500000	0.3232
EUChr08	10800001	13800000	0.3101
EUChr08	11100001	14100000	0.2997
EUChr08	11400001	14400000	0.2799
EUChr08	11700001	14700000	0.2512
EUChr08	12000001	15000000	0.2636
EUChr08	12300001	15300000	0.2533
EUChr08	12600001	15600000	0.2391
EUChr08	12900001	15900000	0.2537
EUChr08	13200001	16200000	0.2588
EUChr08	13500001	16500000	0.2673
EUChr08	13800001	16800000	0.2780
EUChr08	14100001	17100000	0.2784
EUChr08	14400001	17400000	0.2735
EUChr08	14700001	17700000	0.2878
EUChr08	15000001	18000000	0.2707
EUChr08	15300001	18300000	0.2753
EUChr08	15600001	18600000	0.2715
EUChr08	15900001	18900000	0.2629
EUChr08	16200001	19200000	0.2597
EUChr08	16500001	19500000	0.2593
EUChr08	16800001	19800000	0.2543
EUChr08	17100001	20100000	0.2536
EUChr08	17400001	20400000	0.2543
EUChr08	17700001	20700000	0.2490
EUChr08	18000001	21000000	0.2561
EUChr08	18300001	21300000	0.2630
EUChr08	18600001	21600000	0.2809
EUChr08	18900001	21900000	0.3404
EUChr08	19200001	22200000	0.3448
EUChr08	19500001	22500000	0.3453
EUChr08	19800001	22800000	0.3465
EUChr08	20100001	23100000	0.3543
EUChr08	20400001	23400000	0.3587
EUChr08	20700001	23700000	0.3587
EUChr08	21000001	24000000	0.3642
EUChr08	21300001	24300000	0.3569
EUChr08	21600001	24600000	0.3480
EUChr08	21900001	24900000	0.2946
EUChr08	22200001	25200000	0.3028
EUChr08	22500001	25500000	0.2933
EUChr08	22800001	25800000	0.2926
EUChr08	23100001	26100000	0.2948
EUChr08	23400001	26400000	0.3026
EUChr08	23700001	26700000	0.3139
EUChr08	24000001	27000000	0.3112
EUChr08	24300001	27300000	0.3044
EUChr08	24600001	27600000	0.3011
EUChr08	24900001	27900000	0.3144
EUChr08	25200001	28200000	0.3106
EUChr08	25500001	28500000	0.3350
EUChr08	25800001	28800000	0.3363
EUChr08	26100001	29100000	0.3345
EUChr08	26400001	29400000	0.3295
EUChr08	26700001	29700000	0.3220
EUChr08	27000001	30000000	0.3305
EUChr08	27300001	30300000	0.3661
EUChr08	27600001	30600000	0.3783
EUChr08	27900001	30900000	0.3704
EUChr08	28200001	31200000	0.3834
EUChr08	28500001	31500000	0.3690
EUChr08	28800001	31800000	0.3690
EUChr08	29100001	32100000	0.3622
EUChr08	29400001	32400000	0.3758
EUChr08	29700001	32700000	0.3698
EUChr08	30000001	33000000	0.3661
EUChr08	30300001	33300000	0.3409
EUChr08	30600001	33600000	0.3290
EUChr08	30900001	33900000	0.3560
EUChr08	31200001	34200000	0.3255
EUChr08	31500001	34500000	0.3297
EUChr08	31800001	34800000	0.3421
EUChr08	32100001	35100000	0.3725
EUChr08	32400001	35400000	0.3910
EUChr08	32700001	35700000	0.4050
EUChr08	33000001	36000000	0.4014
EUChr08	33300001	36300000	0.3976
EUChr08	33600001	36600000	0.4051
EUChr08	33900001	36900000	0.3722
EUChr08	34200001	37200000	0.3903
EUChr08	34500001	37500000	0.3733
EUChr08	34800001	37800000	0.3539
EUChr08	35100001	38100000	0.3131
EUChr08	35400001	38400000	0.2954
EUChr08	35700001	38700000	0.3035
EUChr08	36000001	39000000	0.2968
EUChr08	36300001	39300000	0.3001
EUChr08	36600001	39600000	0.2827
EUChr08	36900001	39900000	0.3011
EUChr08	37200001	40200000	0.2849
EUChr08	37500001	40500000	0.2843
EUChr08	37800001	40800000	0.2929
EUChr08	38100001	41100000	0.3171
EUChr08	38400001	41400000	0.2939
EUChr08	38700001	41700000	0.2615
EUChr08	39000001	42000000	0.2697
EUChr08	39300001	42300000	0.2549
EUChr08	39600001	42600000	0.2671
EUChr08	39900001	42900000	0.2319
EUChr08	40200001	43200000	0.2272
EUChr08	40500001	43500000	0.2431
EUChr08	40800001	43800000	0.2299
EUChr08	41100001	44100000	0.2246
EUChr08	41400001	44400000	0.2507
EUChr08	41700001	44700000	0.2465
EUChr08	42000001	45000000	0.2419
EUChr08	42300001	45300000	0.2334
EUChr08	42600001	45600000	0.2232
EUChr08	42900001	45900000	0.2335
EUChr08	43200001	46200000	0.2593
EUChr08	43500001	46500000	0.2584
EUChr08	43800001	46800000	0.2594
EUChr08	44100001	47100000	0.2502
EUChr08	44400001	47400000	0.2195
EUChr08	44700001	47700000	0.2329
EUChr08	45000001	48000000	0.2363
EUChr08	45300001	48300000	0.2560
EUChr08	45600001	48600000	0.2822
EUChr08	45900001	48900000	0.2829
EUChr08	46200001	49200000	0.2573
EUChr08	46500001	49500000	0.2434
EUChr08	46800001	49800000	0.2415
EUChr08	47100001	50100000	0.2298
EUChr08	47400001	50400000	0.2402
EUChr08	47700001	50700000	0.2483
EUChr08	48000001	51000000	0.2459
EUChr08	48300001	51300000	0.2516
EUChr08	48600001	51600000	0.2264
EUChr08	48900001	51900000	0.2168
EUChr08	49200001	52200000	0.2356
EUChr08	49500001	52500000	0.2320
EUChr08	49800001	52800000	0.2398
EUChr08	50100001	53100000	0.2371
EUChr08	50400001	53400000	0.2304
EUChr08	50700001	53700000	0.2192
EUChr08	51000001	54000000	0.2358
EUChr08	51300001	54300000	0.2292
EUChr08	51600001	54600000	0.2469
EUChr08	51900001	54900000	0.2731
EUChr08	52200001	55200000	0.2554
EUChr08	52500001	55500000	0.2616
EUChr08	52800001	55800000	0.2793
EUChr08	53100001	56100000	0.2965
EUChr08	53400001	56400000	0.3224
EUChr08	53700001	56700000	0.3562
EUChr08	54000001	57000000	0.3584
EUChr08	54300001	57300000	0.3724
EUChr08	54600001	57600000	0.3677
EUChr08	54900001	57900000	0.3571
EUChr08	55200001	58200000	0.3613
EUChr08	55500001	58500000	0.3579
EUChr08	55800001	58800000	0.3461
EUChr08	56100001	59100000	0.3440
EUChr08	56400001	59400000	0.3333
EUChr08	56700001	59700000	0.2943
EUChr08	57000001	60000000	0.2689
EUChr08	57300001	60186531	0.2555
EUChr09	1	3000000	0.3383
EUChr09	300001	3300000	0.3730
EUChr09	600001	3600000	0.3933
EUChr09	900001	3900000	0.3850
EUChr09	1200001	4200000	0.3811
EUChr09	1500001	4500000	0.3687
EUChr09	1800001	4800000	0.3726
EUChr09	2100001	5100000	0.4144
EUChr09	2400001	5400000	0.4144
EUChr09	2700001	5700000	0.3842
EUChr09	3000001	6000000	0.3818
EUChr09	3300001	6300000	0.3646
EUChr09	3600001	6600000	0.3739
EUChr09	3900001	6900000	0.3694
EUChr09	4200001	7200000	0.3893
EUChr09	4500001	7500000	0.4157
EUChr09	4800001	7800000	0.4353
EUChr09	5100001	8100000	0.4048
EUChr09	5400001	8400000	0.3714
EUChr09	5700001	8700000	0.3683
EUChr09	6000001	9000000	0.3622
EUChr09	6300001	9300000	0.3809
EUChr09	6600001	9600000	0.3599
EUChr09	6900001	9900000	0.3720
EUChr09	7200001	10200000	0.3686
EUChr09	7500001	10500000	0.3657
EUChr09	7800001	10800000	0.3328
EUChr09	8100001	11100000	0.3302
EUChr09	8400001	11400000	0.3054
EUChr09	8700001	11700000	0.2990
EUChr09	9000001	12000000	0.3224
EUChr09	9300001	12300000	0.3196
EUChr09	9600001	12600000	0.3259
EUChr09	9900001	12900000	0.3130
EUChr09	10200001	13200000	0.3013
EUChr09	10500001	13500000	0.2879
EUChr09	10800001	13800000	0.3057
EUChr09	11100001	14100000	0.3084
EUChr09	11400001	14400000	0.3221
EUChr09	11700001	14700000	0.3302
EUChr09	12000001	15000000	0.3309
EUChr09	12300001	15300000	0.3353
EUChr09	12600001	15600000	0.3453
EUChr09	12900001	15900000	0.3340
EUChr09	13200001	16200000	0.3330
EUChr09	13500001	16500000	0.3589
EUChr09	13800001	16800000	0.3748
EUChr09	14100001	17100000	0.3914
EUChr09	14400001	17400000	0.4014
EUChr09	14700001	17700000	0.3866
EUChr09	15000001	18000000	0.3912
EUChr09	15300001	18300000	0.3803
EUChr09	15600001	18600000	0.3728
EUChr09	15900001	18900000	0.3609
EUChr09	16200001	19200000	0.3624
EUChr09	16500001	19500000	0.3421
EUChr09	16800001	19800000	0.3022
EUChr09	17100001	20100000	0.2885
EUChr09	17400001	20400000	0.2601
EUChr09	17700001	20700000	0.2430
EUChr09	18000001	21000000	0.2126
EUChr09	18300001	21300000	0.2055
EUChr09	18600001	21600000	0.1912
EUChr09	18900001	21900000	0.2127
EUChr09	19200001	22200000	0.1973
EUChr09	19500001	22500000	0.1775
EUChr09	19800001	22800000	0.1886
EUChr09	20100001	23100000	0.1718
EUChr09	20400001	23400000	0.1820
EUChr09	20700001	23700000	0.1784
EUChr09	21000001	24000000	0.1942
EUChr09	21300001	24300000	0.1827
EUChr09	21600001	24600000	0.1910
EUChr09	21900001	24900000	0.1826
EUChr09	22200001	25200000	0.2102
EUChr09	22500001	25500000	0.2271
EUChr09	22800001	25800000	0.2338
EUChr09	23100001	26100000	0.2334
EUChr09	23400001	26400000	0.2292
EUChr09	23700001	26700000	0.2337
EUChr09	24000001	27000000	0.2228
EUChr09	24300001	27300000	0.2242
EUChr09	24600001	27600000	0.2487
EUChr09	24900001	27900000	0.2654
EUChr09	25200001	28200000	0.2397
EUChr09	25500001	28500000	0.2341
EUChr09	25800001	28800000	0.2346
EUChr09	26100001	29100000	0.2602
EUChr09	26400001	29400000	0.2678
EUChr09	26700001	29700000	0.2622
EUChr09	27000001	30000000	0.2568
EUChr09	27300001	30300000	0.2660
EUChr09	27600001	30600000	0.2451
EUChr09	27900001	30900000	0.2308
EUChr09	28200001	31200000	0.2255
EUChr09	28500001	31500000	0.2307
EUChr09	28800001	31800000	0.2321
EUChr09	29100001	32100000	0.2133
EUChr09	29400001	32400000	0.2321
EUChr09	29700001	32700000	0.2370
EUChr09	30000001	33000000	0.2644
EUChr09	30300001	33300000	0.2733
EUChr09	30600001	33600000	0.2861
EUChr09	30900001	33900000	0.2888
EUChr09	31200001	34200000	0.3049
EUChr09	31500001	34500000	0.3014
EUChr09	31800001	34800000	0.2956
EUChr09	32100001	35100000	0.2796
EUChr09	32400001	35400000	0.2475
EUChr09	32700001	35568223	0.2523
EUChr10	1	3000000	0.2216
EUChr10	300001	3300000	0.2022
EUChr10	600001	3600000	0.2006
EUChr10	900001	3900000	0.2025
EUChr10	1200001	4200000	0.2177
EUChr10	1500001	4500000	0.2037
EUChr10	1800001	4800000	0.2177
EUChr10	2100001	5100000	0.2225
EUChr10	2400001	5400000	0.2516
EUChr10	2700001	5700000	0.2323
EUChr10	3000001	6000000	0.2631
EUChr10	3300001	6300000	0.2635
EUChr10	3600001	6600000	0.2720
EUChr10	3900001	6900000	0.2918
EUChr10	4200001	7200000	0.2726
EUChr10	4500001	7500000	0.2639
EUChr10	4800001	7800000	0.2594
EUChr10	5100001	8100000	0.2662
EUChr10	5400001	8400000	0.2360
EUChr10	5700001	8700000	0.2239
EUChr10	6000001	9000000	0.1933
EUChr10	6300001	9300000	0.1928
EUChr10	6600001	9600000	0.1906
EUChr10	6900001	9900000	0.1865
EUChr10	7200001	10200000	0.1761
EUChr10	7500001	10500000	0.1774
EUChr10	7800001	10800000	0.1851
EUChr10	8100001	11100000	0.1747
EUChr10	8400001	11400000	0.1818
EUChr10	8700001	11700000	0.1990
EUChr10	9000001	12000000	0.2109
EUChr10	9300001	12300000	0.2329
EUChr10	9600001	12600000	0.2376
EUChr10	9900001	12900000	0.2117
EUChr10	10200001	13200000	0.2196
EUChr10	10500001	13500000	0.2276
EUChr10	10800001	13800000	0.2445
EUChr10	11100001	14100000	0.2506
EUChr10	11400001	14400000	0.2896
EUChr10	11700001	14700000	0.3009
EUChr10	12000001	15000000	0.3190
EUChr10	12300001	15300000	0.3102
EUChr10	12600001	15600000	0.3097
EUChr10	12900001	15900000	0.3095
EUChr10	13200001	16200000	0.3220
EUChr10	13500001	16500000	0.3470
EUChr10	13800001	16800000	0.3311
EUChr10	14100001	17100000	0.3424
EUChr10	14400001	17400000	0.3257
EUChr10	14700001	17700000	0.3304
EUChr10	15000001	18000000	0.3473
EUChr10	15300001	18300000	0.3677
EUChr10	15600001	18600000	0.3786
EUChr10	15900001	18900000	0.4052
EUChr10	16200001	19200000	0.3917
EUChr10	16500001	19500000	0.4171
EUChr10	16800001	19800000	0.4265
EUChr10	17100001	20100000	0.4147
EUChr10	17400001	20400000	0.4031
EUChr10	17700001	20700000	0.3990
EUChr10	18000001	21000000	0.3803
EUChr10	18300001	21300000	0.3486
EUChr10	18600001	21600000	0.3441
EUChr10	18900001	21900000	0.3547
EUChr10	19200001	22200000	0.3486
EUChr10	19500001	22500000	0.3016
EUChr10	19800001	22800000	0.2861
EUChr10	20100001	23100000	0.2798
EUChr10	20400001	23400000	0.2974
EUChr10	20700001	23700000	0.2958
EUChr10	21000001	24000000	0.2943
EUChr10	21300001	24300000	0.2996
EUChr10	21600001	24600000	0.2854
EUChr10	21900001	24900000	0.2876
EUChr10	22200001	25200000	0.2996
EUChr10	22500001	25500000	0.3102
EUChr10	22800001	25800000	0.3217
EUChr10	23100001	26100000	0.3205
EUChr10	23400001	26400000	0.3121
EUChr10	23700001	26700000	0.3068
EUChr10	24000001	27000000	0.2943
EUChr10	24300001	27300000	0.2873
EUChr10	24600001	27600000	0.2985
EUChr10	24900001	27900000	0.2832
EUChr10	25200001	28200000	0.2897
EUChr10	25500001	28500000	0.2717
EUChr10	25800001	28800000	0.2558
EUChr10	26100001	29100000	0.2592
EUChr10	26400001	29400000	0.2405
EUChr10	26700001	29700000	0.2324
EUChr10	27000001	30000000	0.2207
EUChr10	27300001	30300000	0.2142
EUChr10	27600001	30600000	0.2070
EUChr10	27900001	30900000	0.1945
EUChr10	28200001	31200000	0.1963
EUChr10	28500001	31500000	0.1997
EUChr10	28800001	31800000	0.2025
EUChr10	29100001	32100000	0.1960
EUChr10	29400001	32400000	0.2068
EUChr10	29700001	32700000	0.2008
EUChr10	30000001	33000000	0.2197
EUChr10	30300001	33300000	0.2225
EUChr10	30600001	33600000	0.2612
EUChr10	30900001	33900000	0.2654
EUChr10	31200001	34200000	0.2585
EUChr10	31500001	34500000	0.2632
EUChr10	31800001	34800000	0.2552
EUChr10	32100001	35100000	0.2566
EUChr10	32400001	35400000	0.2406
EUChr10	32700001	35700000	0.2388
EUChr10	33000001	36000000	0.2119
EUChr10	33300001	36300000	0.2258
EUChr10	33600001	36600000	0.1921
EUChr10	33900001	36900000	0.2007
EUChr10	34200001	37200000	0.2112
EUChr10	34500001	37500000	0.2159
EUChr10	34800001	37800000	0.2334
EUChr10	35100001	38100000	0.2253
EUChr10	35400001	38400000	0.2325
EUChr10	35700001	38700000	0.2315
EUChr10	36000001	39000000	0.2448
EUChr10	36300001	39300000	0.2312
EUChr10	36600001	39600000	0.2323
EUChr10	36900001	39900000	0.2154
EUChr10	37200001	40200000	0.2143
EUChr10	37500001	40500000	0.2112
EUChr10	37800001	40619429	0.2053
EUChr11	1	3000000	0.2399
EUChr11	300001	3300000	0.2240
EUChr11	600001	3600000	0.1864
EUChr11	900001	3900000	0.1908
EUChr11	1200001	4200000	0.2130
EUChr11	1500001	4500000	0.2314
EUChr11	1800001	4800000	0.2430
EUChr11	2100001	5100000	0.2307
EUChr11	2400001	5400000	0.2395
EUChr11	2700001	5700000	0.2305
EUChr11	3000001	6000000	0.2568
EUChr11	3300001	6300000	0.2723
EUChr11	3600001	6600000	0.3044
EUChr11	3900001	6900000	0.3301
EUChr11	4200001	7200000	0.3345
EUChr11	4500001	7500000	0.3166
EUChr11	4800001	7800000	0.2937
EUChr11	5100001	8100000	0.2938
EUChr11	5400001	8400000	0.3035
EUChr11	5700001	8700000	0.3118
EUChr11	6000001	9000000	0.3155
EUChr11	6300001	9300000	0.3027
EUChr11	6600001	9600000	0.2781
EUChr11	6900001	9900000	0.2611
EUChr11	7200001	10200000	0.2502
EUChr11	7500001	10500000	0.2554
EUChr11	7800001	10800000	0.2556
EUChr11	8100001	11100000	0.2605
EUChr11	8400001	11400000	0.2391
EUChr11	8700001	11700000	0.2396
EUChr11	9000001	12000000	0.2231
EUChr11	9300001	12300000	0.2349
EUChr11	9600001	12600000	0.2409
EUChr11	9900001	12900000	0.2329
EUChr11	10200001	13200000	0.2241
EUChr11	10500001	13500000	0.2101
EUChr11	10800001	13800000	0.2056
EUChr11	11100001	14100000	0.2237
EUChr11	11400001	14400000	0.2450
EUChr11	11700001	14700000	0.2479
EUChr11	12000001	15000000	0.2400
EUChr11	12300001	15300000	0.2205
EUChr11	12600001	15600000	0.2137
EUChr11	12900001	15900000	0.2121
EUChr11	13200001	16200000	0.2353
EUChr11	13500001	16500000	0.2421
EUChr11	13800001	16800000	0.2436
EUChr11	14100001	17100000	0.2222
EUChr11	14400001	17400000	0.2282
EUChr11	14700001	17700000	0.2258
EUChr11	15000001	18000000	0.2313
EUChr11	15300001	18300000	0.2391
EUChr11	15600001	18600000	0.2566
EUChr11	15900001	18900000	0.2747
EUChr11	16200001	19200000	0.2958
EUChr11	16500001	19500000	0.2996
EUChr11	16800001	19800000	0.2942
EUChr11	17100001	20100000	0.2979
EUChr11	17400001	20400000	0.2958
EUChr11	17700001	20700000	0.2950
EUChr11	18000001	21000000	0.3008
EUChr11	18300001	21300000	0.3252
EUChr11	18600001	21600000	0.3151
EUChr11	18900001	21900000	0.3033
EUChr11	19200001	22200000	0.2703
EUChr11	19500001	22500000	0.2722
EUChr11	19800001	22800000	0.2789
EUChr11	20100001	23100000	0.2715
EUChr11	20400001	23400000	0.2503
EUChr11	20700001	23700000	0.2568
EUChr11	21000001	24000000	0.2444
EUChr11	21300001	24300000	0.2282
EUChr11	21600001	24600000	0.2154
EUChr11	21900001	24900000	0.2206
EUChr11	22200001	25200000	0.2023
EUChr11	22500001	25500000	0.1889
EUChr11	22800001	25800000	0.1891
EUChr11	23100001	26100000	0.2081
EUChr11	23400001	26400000	0.2402
EUChr11	23700001	26700000	0.2286
EUChr11	24000001	27000000	0.2255
EUChr11	24300001	27300000	0.2168
EUChr11	24600001	27600000	0.2220
EUChr11	24900001	27900000	0.2090
EUChr11	25200001	28200000	0.2244
EUChr11	25500001	28500000	0.2340
EUChr11	25800001	28800000	0.2301
EUChr11	26100001	29100000	0.2176
EUChr11	26400001	29400000	0.1849
EUChr11	26700001	29700000	0.1945
EUChr11	27000001	30000000	0.2196
EUChr11	27300001	30300000	0.2091
EUChr11	27600001	30600000	0.2195
EUChr11	27900001	30900000	0.2340
EUChr11	28200001	31200000	0.2500
EUChr11	28500001	31500000	0.2717
EUChr11	28800001	31800000	0.2832
EUChr11	29100001	32100000	0.2703
EUChr11	29400001	32400000	0.2655
EUChr11	29700001	32700000	0.2663
EUChr11	30000001	33000000	0.2430
EUChr11	30300001	33300000	0.2674
EUChr11	30600001	33600000	0.2739
EUChr11	30900001	33900000	0.2606
EUChr11	31200001	34200000	0.2357
EUChr11	31500001	34500000	0.2049
EUChr11	31800001	34800000	0.2027
EUChr11	32100001	35100000	0.2152
EUChr11	32400001	35400000	0.2158
EUChr11	32700001	35700000	0.2154
EUChr11	33000001	36000000	0.2367
EUChr11	33300001	36300000	0.2355
EUChr11	33600001	36600000	0.2261
EUChr11	33900001	36900000	0.2390
EUChr11	34200001	37154267	0.2402
